%YAML 1.1
%TAG !u! tag:unity3d.com,2011:
--- !u!114 &11400000
MonoBehaviour:
  m_ObjectHideFlags: 0
  m_CorrespondingSourceObject: {fileID: 0}
  m_PrefabInstance: {fileID: 0}
  m_PrefabAsset: {fileID: 0}
  m_GameObject: {fileID: 0}
  m_Enabled: 1
  m_EditorHideFlags: 0
  m_Script: {fileID: 11500000, guid: 09467975275d7443ca95a299a9bacc56, type: 3}
  m_Name: PlayerLaserAutoShooterSpecial
  m_EditorClassIdentifier: 
  shootInitialWaitTime: 0.3
  shootCadence: 0.2
  damage: 5
  autoShooting: 1
