%YAML 1.1
%TAG !u! tag:unity3d.com,2011:
--- !u!114 &11400000
MonoBehaviour:
  m_ObjectHideFlags: 0
  m_CorrespondingSourceObject: {fileID: 0}
  m_PrefabInstance: {fileID: 0}
  m_PrefabAsset: {fileID: 0}
  m_GameObject: {fileID: 0}
  m_Enabled: 1
  m_EditorHideFlags: 0
  m_Script: {fileID: 11500000, guid: b06364f89374e45049d03928b730e8e2, type: 3}
  m_Name: Basic Enemy Wave Shooter 4
  m_EditorClassIdentifier: 
  enemies:
  - enemyPrefab: {fileID: 3583076073926449371, guid: d9f0f0e40e240470c9c561f00d1a3db5,
      type: 3}
    spawnReferencePosition: {x: 0, y: 5.3, z: 0}
    useSpecificXPosition: 1
    rotation: {x: 0, y: 0, z: 180, w: 0}
    config: {fileID: 11400000, guid: b23cd16f17d004202af5bae9ce8f0a1a, type: 2}
  - enemyPrefab: {fileID: 3583076073926449371, guid: d9f0f0e40e240470c9c561f00d1a3db5,
      type: 3}
    spawnReferencePosition: {x: 0, y: 5.3, z: 0}
    useSpecificXPosition: 1
    rotation: {x: 0, y: 0, z: 180, w: 0}
    config: {fileID: 11400000, guid: b23cd16f17d004202af5bae9ce8f0a1a, type: 2}
  - enemyPrefab: {fileID: 3583076073926449371, guid: d9f0f0e40e240470c9c561f00d1a3db5,
      type: 3}
    spawnReferencePosition: {x: 0, y: 5.3, z: 0}
    useSpecificXPosition: 1
    rotation: {x: 0, y: 0, z: 180, w: 0}
    config: {fileID: 11400000, guid: b23cd16f17d004202af5bae9ce8f0a1a, type: 2}
  - enemyPrefab: {fileID: 3583076073926449371, guid: d9f0f0e40e240470c9c561f00d1a3db5,
      type: 3}
    spawnReferencePosition: {x: 0, y: 5.3, z: 0}
    useSpecificXPosition: 1
    rotation: {x: 0, y: 0, z: 180, w: 0}
    config: {fileID: 11400000, guid: b23cd16f17d004202af5bae9ce8f0a1a, type: 2}
  - enemyPrefab: {fileID: 3583076073926449371, guid: d9f0f0e40e240470c9c561f00d1a3db5,
      type: 3}
    spawnReferencePosition: {x: 0, y: 5.3, z: 0}
    useSpecificXPosition: 1
    rotation: {x: 0, y: 0, z: 180, w: 0}
    config: {fileID: 11400000, guid: b23cd16f17d004202af5bae9ce8f0a1a, type: 2}
  - enemyPrefab: {fileID: 3583076073926449371, guid: d9f0f0e40e240470c9c561f00d1a3db5,
      type: 3}
    spawnReferencePosition: {x: 0, y: 5.3, z: 0}
    useSpecificXPosition: 1
    rotation: {x: 0, y: 0, z: 180, w: 0}
    config: {fileID: 11400000, guid: b23cd16f17d004202af5bae9ce8f0a1a, type: 2}
  cadence: 0.5
